<svg width="18" height="18" viewBox="0 0 18 18" fill="none" xmlns="http://www.w3.org/2000/svg">
<path d="M5.79987 5.78302L12.1999 12.183M5.79987 12.183L12.1999 5.78302M8.99987 16.4497C4.87614 16.4497 1.5332 13.1067 1.5332 8.98302C1.5332 4.8593 4.87614 1.51636 8.99987 1.51636C13.1236 1.51636 16.4665 4.8593 16.4665 8.98302C16.4665 13.1067 13.1236 16.4497 8.99987 16.4497Z" stroke="#615E69" strokeWidth="1.2"/>
</svg>
