<svg width="14" height="10" viewBox="0 0 14 10" fill="none" xmlns="http://www.w3.org/2000/svg">
<path d="M0 0.799805H14V2.8998H12.6L13.3 9.1998H11.55L11.158 5.6998H2.842L2.45 9.1998H0.7L1.4 2.8998H0V0.799805ZM10.85 2.8998H3.15L3.003 4.2998H10.997L10.85 2.8998Z" fill="#77757F"/>
</svg>
