<svg width="18" height="18" viewBox="0 0 18 18" fill="none" xmlns="http://www.w3.org/2000/svg">
<path d="M4.7332 13.242H5.3332V12.642H4.7332V13.242ZM4.7332 16.4399H4.1332C4.1332 16.6672 4.26157 16.8749 4.46479 16.9765C4.66802 17.0782 4.91123 17.0563 5.09305 16.92L4.7332 16.4399ZM8.99987 13.242V12.642H8.79997L8.64002 12.7619L8.99987 13.242ZM5.79987 5.18022H5.19987V6.38022H5.79987V5.18022ZM12.1999 6.38022H12.7999V5.18022H12.1999V6.38022ZM5.79987 8.37814H5.19987V9.57814H5.79987V8.37814ZM10.0665 9.57814H10.6665V8.37814H10.0665V9.57814ZM4.1332 13.242V16.4399H5.3332V13.242H4.1332ZM5.09305 16.92L9.35972 13.7221L8.64002 12.7619L4.37335 15.9598L5.09305 16.92ZM8.99987 13.842H15.3999V12.642H8.99987V13.842ZM15.3999 13.842C16.3207 13.842 17.0665 13.0973 17.0665 12.1761H15.8665C15.8665 12.4338 15.6587 12.642 15.3999 12.642V13.842ZM17.0665 12.1761V2.58231H15.8665V12.1761H17.0665ZM17.0665 2.58231C17.0665 1.66107 16.3207 0.916357 15.3999 0.916357V2.11636C15.6587 2.11636 15.8665 2.32458 15.8665 2.58231H17.0665ZM15.3999 0.916357H2.59987V2.11636H15.3999V0.916357ZM2.59987 0.916357C1.67902 0.916357 0.933203 1.66107 0.933203 2.58231H2.1332C2.1332 2.32458 2.34099 2.11636 2.59987 2.11636V0.916357ZM0.933203 2.58231V12.1761H2.1332V2.58231H0.933203ZM0.933203 12.1761C0.933203 13.0973 1.67902 13.842 2.59987 13.842V12.642C2.34099 12.642 2.1332 12.4338 2.1332 12.1761H0.933203ZM2.59987 13.842H4.7332V12.642H2.59987V13.842ZM5.79987 6.38022H12.1999V5.18022H5.79987V6.38022ZM5.79987 9.57814H10.0665V8.37814H5.79987V9.57814Z" fill="white"/>
</svg>
