<svg width="25" height="26" viewBox="0 0 25 26" fill="none" xmlns="http://www.w3.org/2000/svg">
<rect y="0.4375" width="25" height="25" rx="12.5" fill="url(#paint0_linear_5680:226632)"/>
<g clip-path="url(#clip0_5680:226632)">
<path d="M14.0455 25.5626V16.4418H17.1074L17.5658 12.8873H14.0455V10.6178C14.0455 9.58868 14.3314 8.88729 15.8074 8.88729L17.6899 8.88642V5.70729C17.3642 5.66413 16.2468 5.56738 14.9468 5.56738C12.2327 5.56738 10.3745 7.22381 10.3745 10.2659V12.8873H7.30469V16.4419H10.3744V25.5627L14.0455 25.5626Z" fill="white"/>
</g>
<defs>
<linearGradient id="paint0_linear_5680:226632" x1="13" y1="25.4375" x2="18" y2="-13.5625" gradientUnits="userSpaceOnUse">
<stop stop-color="#0D66EB"/>
<stop offset="1" stop-color="#85C4FF"/>
</linearGradient>
<clipPath id="clip0_5680:226632">
<rect width="20" height="20" fill="white" transform="translate(2.5 5.5625)"/>
</clipPath>
</defs>
</svg>
