<svg width="14" height="16" viewBox="0 0 14 16" fill="none" xmlns="http://www.w3.org/2000/svg">
<path d="M13.5697 6.15757C15.2101 8.61818 11.1091 16 9.46871 16C7.82831 16 7.82831 15.1798 7.00811 15.1798C6.1879 15.1798 6.1879 16 4.5475 16C2.90709 16 -1.19392 8.61818 0.446485 6.15757C2.08689 3.69696 4.5475 3.69696 6.1879 4.51716V2.05656C1.57836 4.57458 0.536707 1.05591 0.536707 1.05591C0.536707 1.05591 2.71845 -1.88862 6.1879 2.05656V0.41615H7.82831V4.51716C9.46871 3.69696 11.9293 3.69696 13.5697 6.15757Z" fill="#1D92FF"/>
</svg>
