<svg width="10" height="10" viewBox="0 0 10 10" fill="none" xmlns="http://www.w3.org/2000/svg">
<path d="M9 1H5.33333M9 1V4.66667M9 1L3 7M7.66667 5.33333C7.66667 6.89543 7.66667 9 7.66667 9H1V2.33333H5.33333" stroke="#77757F"/>
</svg>
