<svg width="18" height="18" viewBox="0 0 18 18" fill="none" xmlns="http://www.w3.org/2000/svg">
<path d="M4.7332 13.2419H5.3332V12.6419H4.7332V13.2419ZM4.7332 16.4398H4.1332C4.1332 16.667 4.26157 16.8748 4.46479 16.9764C4.66802 17.0781 4.91123 17.0562 5.09305 16.9199L4.7332 16.4398ZM8.99987 13.2419V12.6419H8.79997L8.64002 12.7618L8.99987 13.2419ZM5.79987 5.1801H5.19987V6.3801H5.79987V5.1801ZM12.1999 6.3801H12.7999V5.1801H12.1999V6.3801ZM5.79987 8.37802H5.19987V9.57802H5.79987V8.37802ZM10.0665 9.57802H10.6665V8.37802H10.0665V9.57802ZM4.1332 13.2419V16.4398H5.3332V13.2419H4.1332ZM5.09305 16.9199L9.35972 13.722L8.64002 12.7618L4.37335 15.9597L5.09305 16.9199ZM8.99987 13.8419H15.3999V12.6419H8.99987V13.8419ZM15.3999 13.8419C16.3207 13.8419 17.0665 13.0972 17.0665 12.1759H15.8665C15.8665 12.4337 15.6587 12.6419 15.3999 12.6419V13.8419ZM17.0665 12.1759V2.58219H15.8665V12.1759H17.0665ZM17.0665 2.58219C17.0665 1.66095 16.3207 0.916235 15.3999 0.916235V2.11624C15.6587 2.11624 15.8665 2.32446 15.8665 2.58219H17.0665ZM15.3999 0.916235H2.59987V2.11624H15.3999V0.916235ZM2.59987 0.916235C1.67902 0.916235 0.933203 1.66095 0.933203 2.58219H2.1332C2.1332 2.32446 2.34099 2.11624 2.59987 2.11624V0.916235ZM0.933203 2.58219V12.1759H2.1332V2.58219H0.933203ZM0.933203 12.1759C0.933203 13.0972 1.67902 13.8419 2.59987 13.8419V12.6419C2.34099 12.6419 2.1332 12.4337 2.1332 12.1759H0.933203ZM2.59987 13.8419H4.7332V12.6419H2.59987V13.8419ZM5.79987 6.3801H12.1999V5.1801H5.79987V6.3801ZM5.79987 9.57802H10.0665V8.37802H5.79987V9.57802Z" fill="white"/>
</svg>
