<svg width="25" height="25" viewBox="0 0 25 25" fill="none" xmlns="http://www.w3.org/2000/svg">
<rect width="25" height="25" rx="12.5" fill="url(#paint0_linear_5680:226661)"/>
<path d="M17.6252 11.6483C18.2571 12.0392 18.2571 12.9583 17.6252 13.3492L10.0261 18.05C9.35987 18.4621 8.5 17.9829 8.5 17.1995L8.5 7.79804C8.5 7.01468 9.35987 6.5355 10.0261 6.9476L17.6252 11.6483Z" fill="white"/>
<defs>
<linearGradient id="paint0_linear_5680:226661" x1="22.9375" y1="1.92308" x2="-2.02852" y2="8.70317" gradientUnits="userSpaceOnUse">
<stop stop-color="#1A5AFF"/>
<stop offset="1" stop-color="#1EE9B6"/>
</linearGradient>
</defs>
</svg>
