<svg width="20" height="18" viewBox="0 0 20 18" fill="none" xmlns="http://www.w3.org/2000/svg">
<path d="M2.14717 15.9841L2.04241 16.473L2.14717 15.9841ZM17.8515 15.9841L17.9563 16.473L17.8515 15.9841ZM17.8515 2.01594L17.9563 1.52704L17.8515 2.01594ZM2.14717 2.01594L2.25194 2.50485L2.14717 2.01594ZM8.66602 6.33334L8.94337 5.91731C8.78994 5.81502 8.59266 5.80549 8.43009 5.8925C8.26751 5.97951 8.16602 6.14894 8.16602 6.33334H8.66602ZM8.66602 11.6667H8.16602C8.16602 11.8511 8.26751 12.0205 8.43009 12.1075C8.59266 12.1945 8.78994 12.185 8.94337 12.0827L8.66602 11.6667ZM12.666 9L12.9434 9.41603C13.0825 9.32329 13.166 9.16718 13.166 9C13.166 8.83283 13.0825 8.67671 12.9434 8.58398L12.666 9ZM0.166016 3.84812V14.1519H1.16602V3.84812H0.166016ZM19.8327 14.1519V3.84812H18.8327V14.1519H19.8327ZM2.04241 16.473C7.2875 17.5969 12.7112 17.5969 17.9563 16.473L17.7468 15.4952C12.6398 16.5895 7.35891 16.5895 2.25194 15.4952L2.04241 16.473ZM17.9563 1.52704C12.7112 0.403095 7.2875 0.403095 2.04241 1.52704L2.25194 2.50485C7.35891 1.41049 12.6398 1.41049 17.7468 2.50485L17.9563 1.52704ZM19.8327 3.84812C19.8327 2.7288 19.0508 1.76157 17.9563 1.52704L17.7468 2.50485C18.3802 2.64057 18.8327 3.20034 18.8327 3.84812H19.8327ZM18.8327 14.1519C18.8327 14.7997 18.3802 15.3594 17.7468 15.4952L17.9563 16.473C19.0508 16.2384 19.8327 15.2712 19.8327 14.1519H18.8327ZM0.166016 14.1519C0.166016 15.2712 0.947935 16.2384 2.04241 16.473L2.25194 15.4952C1.61854 15.3594 1.16602 14.7997 1.16602 14.1519H0.166016ZM1.16602 3.84812C1.16602 3.20034 1.61853 2.64057 2.25194 2.50485L2.04241 1.52704C0.947935 1.76157 0.166016 2.7288 0.166016 3.84812H1.16602ZM8.16602 6.33334V11.6667H9.16602V6.33334H8.16602ZM8.94337 12.0827L12.9434 9.41603L12.3887 8.58398L8.38867 11.2506L8.94337 12.0827ZM12.9434 8.58398L8.94337 5.91731L8.38867 6.74936L12.3887 9.41603L12.9434 8.58398Z" fill="#A5A3A9"/>
</svg>
