<svg width="25" height="30" viewBox="0 0 25 30" fill="none" xmlns="http://www.w3.org/2000/svg">
<path d="M17.3957 11.5245C19.0098 12.6777 20.9874 13.3563 23.1231 13.3563V9.2485C22.7189 9.24868 22.3157 9.2065 21.9203 9.12268V12.3562C19.7848 12.3562 17.8075 11.6775 16.1929 10.5243V18.9071C16.1929 23.1005 12.7917 26.4999 8.59626 26.4999C7.03091 26.4999 5.57591 26.0268 4.36719 25.2157C5.74669 26.6254 7.67044 27.5 9.79874 27.5C13.9944 27.5 17.3958 24.1008 17.3958 19.907V11.5245H17.3957ZM18.8794 7.38022C18.0545 6.4795 17.513 5.31535 17.3957 4.02833V3.5H16.2558C16.5427 5.1357 17.5213 6.53317 18.8794 7.38022ZM7.02071 21.9977C6.55986 21.3938 6.31076 20.6549 6.31189 19.8952C6.31189 17.9772 7.86764 16.4221 9.78694 16.4221C10.1446 16.4219 10.5001 16.4768 10.8411 16.5848V12.3853C10.4427 12.3307 10.0407 12.3076 9.63869 12.3161V15.5848C9.29759 15.4767 8.94191 15.4219 8.58411 15.4221C6.66479 15.4221 5.10916 16.9771 5.10916 18.8953C5.10924 20.2515 5.88684 21.4258 7.02071 21.9977Z" fill="#FF004F"/>
<path d="M16.194 10.5243C17.8086 11.6776 19.7859 12.3562 21.9214 12.3562V9.1227C20.7294 8.86902 19.674 8.2463 18.8805 7.38022C17.5224 6.53317 16.5438 5.13568 16.2569 3.5H13.2629V19.9069C13.2562 21.8197 11.7031 23.3683 9.78792 23.3683C8.6593 23.3683 7.65665 22.8307 7.0217 21.9978C5.88775 21.4258 5.1102 20.2515 5.1102 18.8952C5.1102 16.9771 6.6658 15.4221 8.58512 15.4221C8.95282 15.4221 9.30725 15.4794 9.6397 15.5848V12.3161C5.518 12.4011 2.20312 15.7672 2.20312 19.907C2.20312 21.9736 3.02865 23.847 4.3683 25.2158C5.577 26.0269 7.032 26.5 8.59735 26.5C12.7927 26.5 16.1939 23.1005 16.1939 18.9072V10.5243H16.194Z" fill="black"/>
<path d="M21.9209 9.1227V8.24835C20.846 8.24997 19.7922 7.9491 18.8801 7.3801C19.6875 8.26355 20.7505 8.87277 21.9209 9.1227ZM16.2565 3.5C16.2291 3.3437 16.208 3.18635 16.1935 3.02832V2.5H12.0596V18.9071C12.053 20.8196 10.5 22.3683 8.58465 22.3683C8.02225 22.3683 7.49145 22.2349 7.02122 21.9977C7.65618 22.8307 8.65882 23.3683 9.78745 23.3683C11.7025 23.3683 13.2557 21.8196 13.2625 19.9069V3.5H16.2565ZM9.63938 12.3161V11.3852C9.29395 11.338 8.9457 11.3144 8.59707 11.3146C4.40118 11.3146 1 14.714 1 18.9071C1 21.536 2.33673 23.8528 4.368 25.2156C3.02833 23.8469 2.20282 21.9735 2.20282 19.9069C2.20282 15.7673 5.51755 12.4012 9.63938 12.3161Z" fill="#00F2EA"/>
</svg>
