<svg width="16" height="16" viewBox="0 0 16 16" fill="none" xmlns="http://www.w3.org/2000/svg">
<path d="M7.71265 1L8.10312 0.544446C7.87843 0.351851 7.54687 0.351851 7.32217 0.544446L7.71265 1ZM0.712646 7L0.322172 6.54445L0.112646 6.72404V7H0.712646ZM5.71265 15V15.6C6.04402 15.6 6.31265 15.3314 6.31265 15H5.71265ZM9.71265 15H9.11265C9.11265 15.3314 9.38128 15.6 9.71265 15.6V15ZM14.7126 7H15.3126V6.72404L15.1031 6.54445L14.7126 7ZM1.71265 15.6H5.71265V14.4H1.71265V15.6ZM15.1031 6.54445L8.10312 0.544446L7.32217 1.45555L14.3222 7.45555L15.1031 6.54445ZM7.32217 0.544446L0.322172 6.54445L1.10312 7.45555L8.10312 1.45555L7.32217 0.544446ZM6.31265 15V12H5.11265V15H6.31265ZM9.11265 12V15H10.3126V12H9.11265ZM9.71265 15.6H13.7126V14.4H9.71265V15.6ZM15.3126 14V7H14.1126V14H15.3126ZM0.112646 7V14H1.31265V7H0.112646ZM7.71265 10.6C8.48585 10.6 9.11265 11.2268 9.11265 12H10.3126C10.3126 10.5641 9.14859 9.4 7.71265 9.4V10.6ZM7.71265 9.4C6.27671 9.4 5.11265 10.5641 5.11265 12H6.31265C6.31265 11.2268 6.93945 10.6 7.71265 10.6V9.4ZM13.7126 15.6C14.5963 15.6 15.3126 14.8837 15.3126 14H14.1126C14.1126 14.2209 13.9336 14.4 13.7126 14.4V15.6ZM1.71265 14.4C1.49173 14.4 1.31265 14.2209 1.31265 14H0.112646C0.112646 14.8837 0.828991 15.6 1.71265 15.6V14.4Z" fill="#A5A3A9"/>
</svg>
