<svg width="11" height="16" viewBox="0 0 11 16" fill="none" xmlns="http://www.w3.org/2000/svg">
<path d="M7.67431 2.10751C7.67431 2.69083 7.46732 3.18948 7.05335 3.60346C6.63937 4.01743 6.13758 4.22442 5.54798 4.22442C4.97093 4.22442 4.47698 4.01743 4.06614 3.60346C3.6553 3.18948 3.44989 2.69083 3.44989 2.10751C3.44989 1.53045 3.6553 1.03494 4.06614 0.620962C4.47698 0.206987 4.97093 0 5.54798 0C6.13758 0 6.63937 0.206987 7.05335 0.620962C7.46732 1.03494 7.67431 1.53045 7.67431 2.10751ZM7.60845 13.1625L6.27244 14.4985C6.1219 14.649 6.02468 14.8074 5.98077 14.9736C5.93687 15.1399 5.9353 15.2888 5.97607 15.4205C6.01684 15.5523 6.0874 15.6746 6.18776 15.7875C6.31948 15.938 6.51236 16.0086 6.76639 15.9992C7.02042 15.9898 7.24779 15.8847 7.4485 15.684L9.96998 13.1625C10.1707 12.9618 10.2961 12.7376 10.3463 12.4898C10.3965 12.242 10.3855 12.0131 10.3134 11.803C10.2413 11.5929 10.1268 11.4062 9.96998 11.2432L8.31409 9.60609L6.17835 11.7418L7.60845 13.1625ZM8.06006 9.00394H3.04532V7.47036L1.52114 8.99453C1.30788 9.1827 1.09462 9.27052 0.881363 9.25797C0.668103 9.24543 0.486205 9.16075 0.335669 9.00394C0.20395 8.86595 0.136522 8.70758 0.133386 8.52881C0.13025 8.35005 0.213359 8.16659 0.382712 7.97842L2.48081 5.88032L3.56279 4.78893V4.81716C3.71332 4.69171 3.93286 4.62899 4.22138 4.62899H6.90281C7.18506 4.62899 7.39832 4.69171 7.54259 4.81716V4.78893L8.63397 5.88032L10.7415 7.97842C10.9046 8.16659 10.9845 8.35005 10.9814 8.52881C10.9783 8.70758 10.914 8.86595 10.7885 9.00394C10.638 9.16075 10.4545 9.24543 10.2381 9.25797C10.0217 9.27052 9.80377 9.1827 9.58423 8.99453L8.06006 7.47036V9.00394ZM3.52515 13.1625L4.86116 14.4985C5.0117 14.649 5.10892 14.8074 5.15283 14.9736C5.19673 15.1399 5.1983 15.2888 5.15753 15.4205C5.11676 15.5523 5.0462 15.6746 4.94584 15.7875C4.81412 15.938 4.62125 16.0086 4.36722 15.9992C4.11319 15.9898 3.88581 15.8847 3.6851 15.684L1.16362 13.1625C0.962903 12.9618 0.837456 12.7376 0.787278 12.4898C0.737099 12.242 0.748076 12.0131 0.820208 11.803C0.892339 11.5929 1.00681 11.4062 1.16362 11.2432L2.81952 9.60609L4.97406 11.7418L3.52515 13.1625Z" fill="#1D92FF"/>
</svg>
