<svg width="15" height="16" viewBox="0 0 15 16" fill="none" xmlns="http://www.w3.org/2000/svg">
<path d="M3.5 0.5V5.5M11.5 0.5V5.5M3 8H6M12 8H9M3 11H6M9 11H12M1.5 3H13.5C14.0523 3 14.5 3.44772 14.5 4V14C14.5 14.5523 14.0523 15 13.5 15H1.5C0.947716 15 0.5 14.5523 0.5 14V4C0.5 3.44772 0.947715 3 1.5 3Z" stroke="#77757F"/>
</svg>
