<svg width="33" height="32" viewBox="0 0 33 32" fill="none" xmlns="http://www.w3.org/2000/svg">
<g opacity="0.8">
<path d="M11.167 6V12.6667M21.8337 6V12.6667M13.167 17.3333L15.8337 20L20.5003 14.6667M8.50033 9.33333H24.5003C25.2367 9.33333 25.8337 9.93029 25.8337 10.6667V24C25.8337 24.7364 25.2367 25.3333 24.5003 25.3333H8.50033C7.76395 25.3333 7.16699 24.7364 7.16699 24V10.6667C7.16699 9.93029 7.76395 9.33333 8.50033 9.33333Z" stroke="white" stroke-width="1.2"/>
</g>
</svg>
