<svg width="16" height="16" viewBox="0 0 16 16" fill="none" xmlns="http://www.w3.org/2000/svg">
<path fillRule="evenodd" clipRule="evenodd" d="M7.46667 4.8C7.46667 2.14903 9.6157 0 12.2667 0H16V3.73333C16 6.3843 13.851 8.53333 11.2 8.53333H8.53333V16H7.46667V11.7333H4.8C2.14903 11.7333 0 9.5843 0 6.93333V3.2H3.73333C5.24121 3.2 6.58669 3.89529 7.46667 4.98276V4.8ZM8.68958 6.55619L11.8896 3.35618L12.6438 4.11043L9.44383 7.31043L8.68958 6.55619ZM6.55625 10.5104L3.35625 7.31043L4.1105 6.55619L7.3105 9.75619L6.55625 10.5104Z" fill="#1D92FF"/>
</svg>
