<svg width="16" height="12" viewBox="0 0 16 12" fill="none" xmlns="http://www.w3.org/2000/svg">
<path d="M2.16654 11.3337V11.8337H3.16654V11.3337H2.16654ZM7.49987 11.3337V11.8337H8.49987V11.3337H7.49987ZM3.16654 11.3337V10.8002H2.16654V11.3337H3.16654ZM7.49987 10.8V11.3337H8.49987V10.8H7.49987ZM5.3332 8.63366C6.52991 8.63366 7.49987 9.60343 7.49987 10.8H8.49987C8.49987 9.05097 7.08202 7.63366 5.3332 7.63366V8.63366ZM3.16654 10.8002C3.16654 9.60361 4.13656 8.63366 5.3332 8.63366V7.63366C3.58433 7.63366 2.16654 9.05127 2.16654 10.8002H3.16654ZM5.3332 2.30033C4.1734 2.30033 3.2332 3.24053 3.2332 4.40033H4.2332C4.2332 3.79281 4.72569 3.30033 5.3332 3.30033V2.30033ZM7.4332 4.40033C7.4332 3.24053 6.493 2.30033 5.3332 2.30033V3.30033C5.94072 3.30033 6.4332 3.79281 6.4332 4.40033H7.4332ZM5.3332 6.50033C6.493 6.50033 7.4332 5.56012 7.4332 4.40033H6.4332C6.4332 5.00784 5.94072 5.50033 5.3332 5.50033V6.50033ZM5.3332 5.50033C4.72569 5.50033 4.2332 5.00784 4.2332 4.40033H3.2332C3.2332 5.56012 4.1734 6.50033 5.3332 6.50033V5.50033ZM1.59987 1.16699H14.3999V0.166992H1.59987V1.16699ZM14.9665 1.73366V10.267H15.9665V1.73366H14.9665ZM14.3999 10.8337H1.59987V11.8337H14.3999V10.8337ZM1.0332 10.267V1.73366H0.0332031V10.267H1.0332ZM1.59987 10.8337C1.28691 10.8337 1.0332 10.58 1.0332 10.267H0.0332031C0.0332031 11.1322 0.734624 11.8337 1.59987 11.8337V10.8337ZM14.9665 10.267C14.9665 10.58 14.7128 10.8337 14.3999 10.8337V11.8337C15.2651 11.8337 15.9665 11.1322 15.9665 10.267H14.9665ZM14.3999 1.16699C14.7128 1.16699 14.9665 1.4207 14.9665 1.73366H15.9665C15.9665 0.868413 15.2651 0.166992 14.3999 0.166992V1.16699ZM1.59987 0.166992C0.734624 0.166992 0.0332031 0.868413 0.0332031 1.73366H1.0332C1.0332 1.4207 1.28691 1.16699 1.59987 1.16699V0.166992ZM9.59987 4.36699H12.7999V3.36699H9.59987V4.36699ZM9.59987 7.56699H12.7999V6.56699H9.59987V7.56699Z" fill="#A5A3A9"/>
</svg>
