<svg width="16" height="16" viewBox="0 0 16 16" fill="none" xmlns="http://www.w3.org/2000/svg">
<path d="M4.79987 3.7332L5.15342 3.37965C4.95816 3.18439 4.64158 3.18439 4.44632 3.37965L4.79987 3.7332ZM1.59987 1.0332H14.3999V0.0332031H1.59987V1.0332ZM14.9665 1.59987V14.3999H15.9665V1.59987H14.9665ZM14.3999 14.9665H1.59987V15.9665H14.3999V14.9665ZM1.0332 14.3999V1.59987H0.0332031V14.3999H1.0332ZM1.59987 14.9665C1.28691 14.9665 1.0332 14.7128 1.0332 14.3999H0.0332031C0.0332031 15.2651 0.734624 15.9665 1.59987 15.9665V14.9665ZM14.9665 14.3999C14.9665 14.7128 14.7128 14.9665 14.3999 14.9665V15.9665C15.2651 15.9665 15.9665 15.2651 15.9665 14.3999H14.9665ZM14.3999 1.0332C14.7128 1.0332 14.9665 1.28691 14.9665 1.59987H15.9665C15.9665 0.734624 15.2651 0.0332031 14.3999 0.0332031V1.0332ZM1.59987 0.0332031C0.734623 0.0332031 0.0332031 0.734624 0.0332031 1.59987H1.0332C1.0332 1.28691 1.28691 1.0332 1.59987 1.0332V0.0332031ZM0.533203 11.6999H15.4665V10.6999H0.533203V11.6999ZM0.886757 8.35342L5.15342 4.08676L4.44632 3.37965L0.17965 7.64632L0.886757 8.35342ZM4.44632 4.08676L11.913 11.5534L12.6201 10.8463L5.15342 3.37965L4.44632 4.08676ZM11.1999 5.36654C10.8869 5.36654 10.6332 5.11283 10.6332 4.79987H9.6332C9.6332 5.66512 10.3346 6.36654 11.1999 6.36654V5.36654ZM11.7665 4.79987C11.7665 5.11283 11.5128 5.36654 11.1999 5.36654V6.36654C12.0651 6.36654 12.7665 5.66512 12.7665 4.79987H11.7665ZM11.1999 4.2332C11.5128 4.2332 11.7665 4.48691 11.7665 4.79987H12.7665C12.7665 3.93462 12.0651 3.2332 11.1999 3.2332V4.2332ZM11.1999 3.2332C10.3346 3.2332 9.6332 3.93462 9.6332 4.79987H10.6332C10.6332 4.48691 10.8869 4.2332 11.1999 4.2332V3.2332Z" fill="#A5A3A9"/>
</svg>
