<svg width="20" height="20" viewBox="0 0 20 20" fill="none" xmlns="http://www.w3.org/2000/svg">
<path d="M6.79987 17.449V14.249C6.79987 13.6599 7.27743 13.1823 7.86654 13.1823H12.1332C12.7223 13.1823 13.1999 13.6599 13.1999 14.249V17.449M16.3999 17.449H3.59987C3.01077 17.449 2.5332 16.9714 2.5332 16.3823V3.58229C2.5332 2.99319 3.01077 2.51562 3.59987 2.51562H12.758C13.0409 2.51562 13.3123 2.62801 13.5123 2.82804L17.1541 6.46987C17.3542 6.66991 17.4665 6.94122 17.4665 7.22412V16.3823C17.4665 16.9714 16.989 17.449 16.3999 17.449Z" stroke="white" strokeWidth="1.2"/>
</svg>
