<svg width="16" height="16" viewBox="0 0 16 16" fill="none" xmlns="http://www.w3.org/2000/svg">
<path d="M5.86654 3.19987V2.66654C5.86654 1.48833 6.82166 0.533203 7.99987 0.533203C9.17808 0.533203 10.1332 1.48833 10.1332 2.66654V3.19987M0.533203 12.2665H15.4665M1.59987 3.7332H14.3999C14.989 3.7332 15.4665 4.21077 15.4665 4.79987V14.3999C15.4665 14.989 14.989 15.4665 14.3999 15.4665H1.59987C1.01077 15.4665 0.533203 14.989 0.533203 14.3999V4.79987C0.533203 4.21077 1.01077 3.7332 1.59987 3.7332Z" stroke="#A5A3A9"/>
</svg>
