<svg width="27" height="27" viewBox="0 0 27 27" fill="none" xmlns="http://www.w3.org/2000/svg">
<rect width="27" height="27" rx="13.5" fill="#1D92FF"/>
<path d="M13.5 7V20M7 13.5H20" stroke="white"/>
</svg>
