<svg width="68" height="68" viewBox="0 0 68 68" fill="none" xmlns="http://www.w3.org/2000/svg">
<path fillRule="evenodd" clipRule="evenodd" d="M0 34C0 15.2223 15.2223 0 34 0C52.7777 0 68 15.2223 68 34C68 52.7777 52.7777 68 34 68C15.2223 68 0 52.7777 0 34ZM32.0588 48.5549L51.6367 24.0825L48.0968 21.2506L31.4081 42.1115L19.5845 32.2586L16.6824 35.7412L32.0588 48.5549Z" fill="#35EBBD"/>
</svg>
