<svg width="28" height="28" viewBox="0 0 28 28" fill="none" xmlns="http://www.w3.org/2000/svg">
<path fillRule="evenodd" clipRule="evenodd" d="M13.7354 6.05269C13.8994 5.959 14.1006 5.959 14.2646 6.05269L21.7313 10.3194C21.8974 10.4143 22 10.591 22 10.7824V11.5503C22 16.3849 18.7951 20.6337 14.1465 21.9619C14.0508 21.9893 13.9492 21.9893 13.8535 21.9619C9.20491 20.6337 6 16.3849 6 11.5503V10.7824C6 10.591 6.10255 10.4143 6.26873 10.3194L13.7354 6.05269ZM13.5433 17.4071L18.1498 11.6489L17.3169 10.9826L13.3901 15.891L10.6081 13.5727L9.92526 14.3921L13.5433 17.4071Z" fill="#D2D1D4"/>
</svg>
