<svg width="28" height="28" viewBox="0 0 28 28" fill="none" xmlns="http://www.w3.org/2000/svg">
<path fillRule="evenodd" clipRule="evenodd" d="M7.06689 7.58242C7.06689 6.69877 7.78324 5.98242 8.66689 5.98242H17.4211L20.9336 9.49484V20.3824C20.9336 21.2661 20.2172 21.9824 19.3336 21.9824H8.66689C7.78324 21.9824 7.06689 21.2661 7.06689 20.3824V7.58242ZM10.2669 10.2491H13.4669V11.3158H10.2669V10.2491ZM17.7336 13.4491H10.2669V14.5158H17.7336V13.4491ZM17.7336 16.6491H14.5336V17.7158H17.7336V16.6491Z" fill="#615E69"/>
<rect x="17" y="3" width="8" height="8" rx="4" fill="#F42829" stroke="white"/>
</svg>
