<svg width="15" height="16" viewBox="0 0 15 16" fill="none" xmlns="http://www.w3.org/2000/svg">
<path fillRule="evenodd" clipRule="evenodd" d="M7.5 0.5C11.6421 0.5 15 3.85786 15 8C15 12.1421 11.6421 15.5 7.5 15.5C3.35786 15.5 -2.54447e-06 12.1421 0 8C0 3.85786 3.35786 0.499997 7.5 0.5ZM3.29297 9.49995L7.50008 5.29285L11.7072 9.49995H3.29297Z" fill="#D2D1D4"/>
</svg>
