<svg width="13" height="16" viewBox="0 0 13 16" fill="none" xmlns="http://www.w3.org/2000/svg">
<path d="M12.1333 10C12.1333 11.5913 11.5012 13.1174 10.3759 14.2426C9.25072 15.3679 7.7246 16 6.1333 16C4.542 16 3.01588 15.3679 1.89066 14.2426C0.765442 13.1174 0.133301 11.5913 0.133301 10C0.133913 8.83082 0.47626 7.68731 1.11823 6.71014C1.7602 5.73298 2.6738 4.96476 3.74663 4.5L3.9813 4.68267L5.0133 5.484C4.0031 5.73326 3.10525 6.31317 2.46259 7.13148C1.81993 7.94979 1.46935 8.9595 1.46663 10C1.46663 12.5733 3.55997 14.6667 6.1333 14.6667C8.70663 14.6667 10.8 12.5733 10.8 10C10.7972 8.9595 10.4467 7.94979 9.80401 7.13148C9.16135 6.31317 8.2635 5.73326 7.2533 5.484L8.51997 4.5C9.59281 4.96476 10.5064 5.73298 11.1484 6.71014C11.7903 7.68731 12.1327 8.83082 12.1333 10ZM6.1333 4.66667L9.46663 2.07333L8.1333 0H4.1333L2.79997 2.07333L4.79997 3.62933L6.1333 4.66667Z" fill="#77757F"/>
</svg>
