<svg width="11" height="8" viewBox="0 0 11 8" fill="none" xmlns="http://www.w3.org/2000/svg">
<path fillRule="evenodd" clipRule="evenodd" d="M5.38554 6.66657L3.38554 4.66657L10.4427 4.66657V3.33323L3.38554 3.33323L5.38554 1.33323L4.44273 0.390425L0.833252 3.9999L4.44273 7.60938L5.38554 6.66657Z" fill="#615E69"/>
</svg>
