<svg width="16" height="16" viewBox="0 0 16 16" fill="none" xmlns="http://www.w3.org/2000/svg">
<path d="M5.32444 1.78493L15.12 0.00714993C15.6089 -0.0639612 16 0.40715 16 0.896039V11.936C16 13.6605 14.6044 15.0471 12.8889 15.0471C11.1733 15.0471 9.77778 13.6605 9.77778 11.936C9.77778 10.2205 11.1733 8.82493 12.8889 8.82493C13.3689 8.82493 13.8133 8.94937 14.2222 9.13604V3.56271L6.22222 5.34048V13.2694C6.00889 14.7805 4.67556 15.936 3.11111 15.936C1.39556 15.936 0 14.5494 0 12.8249C0 11.1094 1.39556 9.71382 3.11111 9.71382C3.59111 9.71382 4.03556 9.83826 4.44444 10.0249V2.67382C4.44444 2.18493 4.83556 1.86493 5.32444 1.78493Z" fill="#F9F9F9"/>
</svg>
