<svg width="16" height="16" viewBox="0 0 16 16" fill="none" xmlns="http://www.w3.org/2000/svg">
<path d="M8 8C8 6.91064 8.39149 5.97447 9.17447 5.19149C9.95745 4.40851 10.8936 4.01702 11.983 4.01702C13.0723 4.01702 14.0085 4.40851 14.7915 5.19149C15.5745 5.97447 15.966 6.91064 15.966 8H8ZM8 8C8 9.08936 7.60284 10.0255 6.80851 10.8085C6.01418 11.5915 5.07234 11.983 3.98298 11.983C2.89362 11.983 1.95745 11.5915 1.17447 10.8085C0.391489 10.0255 0 9.08936 0 8H8ZM8 8C6.91064 8 5.96879 7.60851 5.17447 6.82553C4.38014 6.04255 3.98298 5.10638 3.98298 4.01702C3.98298 2.92766 4.38014 1.98582 5.17447 1.19149C5.96879 0.397163 6.91064 0 8 0V8ZM8 8C9.08936 8 10.0255 8.39149 10.8085 9.17447C11.5915 9.95745 11.983 10.8936 11.983 11.983C11.983 13.0723 11.5915 14.0142 10.8085 14.8085C10.0255 15.6028 9.08936 16 8 16V8Z" fill="#77757F"/>
</svg>
