<svg width="16" height="10" viewBox="0 0 16 10" fill="none" xmlns="http://www.w3.org/2000/svg">
<path d="M0 0.200195H16V2.6002H14.4L15.2 9.8002H13.2L12.752 5.8002H3.248L2.8 9.8002H0.8L1.6 2.6002H0V0.200195ZM12.4 2.6002H3.6L3.432 4.2002H12.568L12.4 2.6002Z" fill="#77757F"/>
</svg>
