<svg width="9" height="16" viewBox="0 0 9 16" fill="none" xmlns="http://www.w3.org/2000/svg">
<path fillRule="evenodd" clipRule="evenodd" d="M4.92856 1.99999L6.20056 2.96599H6.20156V4.00799H2.23657V2.96099L2.26757 2.96499L3.44857 1.97499V0.690998C3.44857 0.309999 3.77956 0 4.18756 0C4.59656 0 4.92856 0.308999 4.92856 0.690998V1.99999ZM1.7846 5.00804H6.66158C7.60857 5.00804 8.17957 5.68204 8.17857 6.46104V14.594C8.17857 15.37 7.41357 16 6.46758 16H1.9776C1.0326 16 0.266602 15.37 0.266602 14.594V6.46104C0.266602 5.68204 0.8376 5.00804 1.7846 5.00804ZM6.06858 15.043C6.71358 15.043 7.23858 14.687 7.23858 14.251V7.58203C7.23858 7.53308 7.23498 7.53508 7.19542 7.5571C7.06044 7.63226 6.50677 7.94054 4.24859 7.25303C1.3306 6.36804 1.1896 7.36203 1.1896 7.58203V14.251C1.1896 14.687 1.7126 15.043 2.35859 15.043H6.06858Z" fill="#77757F"/>
</svg>
