<svg width="15" height="16" viewBox="0 0 15 16" fill="none" xmlns="http://www.w3.org/2000/svg">
<path d="M1.66669 16H12.8669C13.2913 16 13.6983 15.8314 13.9983 15.5314C14.2984 15.2313 14.467 14.8243 14.467 14.4V5.59976C14.467 5.38758 14.3827 5.18409 14.2327 5.03406C14.0826 4.88403 13.8791 4.79974 13.667 4.79974H11.2669V4.17813C11.2669 2.09088 9.74447 0.222036 7.66683 0.0196316C7.11071 -0.0356399 6.54919 0.0261125 6.01838 0.200916C5.48757 0.375719 4.99922 0.659702 4.58477 1.0346C4.17031 1.40949 3.83893 1.86699 3.61192 2.37766C3.38492 2.88833 3.26733 3.44087 3.26672 3.99972V4.79974H0.866669C0.654491 4.79974 0.451003 4.88403 0.30097 5.03406C0.150938 5.18409 0.0666504 5.38758 0.0666504 5.59976V14.4C0.0666504 14.8243 0.235225 15.2313 0.53529 15.5314C0.835355 15.8314 1.24233 16 1.66669 16ZM11.2669 6.39978V7.99982H9.66687V6.39978H11.2669ZM4.86676 3.99972C4.86676 2.67649 5.94359 1.59967 7.26682 1.59967C8.59005 1.59967 9.66687 2.67649 9.66687 3.99972V4.79974H4.86676V3.99972ZM3.26672 6.39978H4.86676V7.99982H3.26672V6.39978Z" fill="#77757F"/>
</svg>
