<svg width="16" height="13" viewBox="0 0 16 13" fill="none" xmlns="http://www.w3.org/2000/svg">
<path fillRule="evenodd" clipRule="evenodd" d="M14.7886 8.24591C14.4 8.63448 13.9771 8.97734 13.5314 9.29734L12.5714 7.62877V4.77162H13.7143V3.62877H7.29143L5.31429 0.200195H1.14286L2.28571 1.06877L0.571429 3.05734L1.65714 4.2002L3.42857 3.06877V7.62877L2.46857 9.29734C2.02286 8.98877 1.6 8.63448 1.21143 8.24591L0 9.45734C2.13714 11.5945 4.98286 12.7716 8 12.7716C11.0171 12.7716 13.8629 11.5945 16 9.45734L14.7886 8.24591ZM4 9.8802L4.03429 9.81162L4.96 8.20019C6.94857 8.94305 9.14286 8.94305 11.1314 8.20019L12.0571 9.81162L12.0914 9.8802C10.8343 10.4631 9.46286 10.7831 8.03429 10.7831C6.60571 10.7831 5.25714 10.4745 4 9.8802Z" fill="#77757F"/>
</svg>
