<svg width="16" height="16" viewBox="0 0 16 16" fill="none" xmlns="http://www.w3.org/2000/svg">
<path d="M14.873 13.9466C14.137 14.3146 13.1557 14.0693 12.6651 13.3333L11.3158 11.616H4.6919L3.3426 13.3333C2.72928 14.192 1.6253 14.3146 0.766651 13.7013C0.15333 13.2106 -0.0919981 12.4747 0.030666 11.8613L0.889315 7.32276C1.13464 5.85079 2.48395 4.74682 3.95592 4.74682H7.39051V2.90686C7.39051 1.92554 8.1265 1.06689 9.10781 1.06689H12.9104C13.2784 1.06689 13.5237 1.31222 13.5237 1.68022C13.5237 2.04821 13.2784 2.29354 12.9104 2.29354H9.23048C8.86248 2.29354 8.61715 2.53886 8.61715 2.78419V4.74682H12.0517C13.5237 4.74682 14.873 5.85079 15.1184 7.32276L15.977 11.8613C16.0997 12.72 15.7317 13.5786 14.873 13.9466ZM6.16387 7.81342C6.16387 6.83211 5.30522 5.97346 4.32391 5.97346C3.3426 5.97346 2.48395 6.83211 2.48395 7.81342C2.48395 8.79473 3.3426 9.65338 4.32391 9.65338C5.30522 9.65338 6.16387 8.79473 6.16387 7.81342ZM13.5237 7.81342C13.5237 7.44543 13.2784 7.2001 12.9104 7.2001H12.2971V6.58678C12.2971 6.21879 12.0517 5.97346 11.6838 5.97346C11.3158 5.97346 11.0704 6.21879 11.0704 6.58678V7.2001H10.4571C10.0891 7.2001 9.84379 7.44543 9.84379 7.81342C9.84379 8.18141 10.0891 8.42674 10.4571 8.42674H11.0704V9.04006C11.0704 9.40805 11.3158 9.65338 11.6838 9.65338C12.0517 9.65338 12.2971 9.40805 12.2971 9.04006V8.42674H12.9104C13.2784 8.42674 13.5237 8.18141 13.5237 7.81342Z" fill="#77757F"/>
</svg>
