<svg width="14" height="16" viewBox="0 0 14 16" fill="none" xmlns="http://www.w3.org/2000/svg">
<path d="M13.57 6.15757C15.2104 8.61818 11.1094 16 9.46896 16C7.82855 16 7.82855 15.1798 7.00835 15.1798C6.18815 15.1798 6.18815 16 4.54774 16C2.90734 16 -1.19368 8.61818 0.446729 6.15757C2.08713 3.69696 4.54774 3.69696 6.18815 4.51716V2.05656C1.57861 4.57458 0.536951 1.05591 0.536951 1.05591C0.536951 1.05591 2.71869 -1.88862 6.18815 2.05656V0.41615H7.82855V4.51716C9.46896 3.69696 11.9296 3.69696 13.57 6.15757Z" fill="#F9F9F9"/>
</svg>
