<svg width="17" height="16" viewBox="0 0 17 16" fill="none" xmlns="http://www.w3.org/2000/svg">
<path fillRule="evenodd" clipRule="evenodd" d="M11.8855 3.99988C12.1516 4.00555 12.4162 3.95804 12.6638 3.86012C12.9113 3.7622 13.1368 3.61585 13.3271 3.42964C13.5174 3.24344 13.6685 3.02112 13.7718 2.77574C13.875 2.53035 13.9282 2.26683 13.9282 2.00061C13.9283 1.7344 13.8752 1.47085 13.7721 1.22542C13.669 0.979986 13.5179 0.757607 13.3277 0.571318C13.1376 0.385028 12.9121 0.238576 12.6646 0.140547C12.4171 0.0425172 12.1525 -0.00511736 11.8864 0.000435141C11.3633 0.011464 10.8654 0.226993 10.4994 0.600813C10.1333 0.974633 9.92835 1.47698 9.92835 2.00016C9.92835 2.52333 10.1333 3.02568 10.4994 3.3995C10.8654 3.77332 11.3633 3.98885 11.8864 3.99988H11.8855ZM6.80135 5.15028C6.74188 5.00785 6.65493 4.87855 6.54547 4.76974V4.77019C6.43608 4.66131 6.30631 4.57505 6.16357 4.51635C6.02083 4.45764 5.86793 4.42764 5.71359 4.42805C5.55925 4.42847 5.40651 4.45929 5.26409 4.51875C5.12166 4.57822 4.99236 4.66517 4.88355 4.77463L4.01237 5.65115H2.86338C2.55176 5.65115 2.25289 5.77494 2.03254 5.9953C1.81219 6.21565 1.68839 6.51451 1.68839 6.82614C1.68839 7.13776 1.81219 7.43663 2.03254 7.65698C2.25289 7.87733 2.55176 8.00113 2.86338 8.00113H4.09015C4.38824 8.00112 4.68329 7.94115 4.95773 7.82477C5.23216 7.7084 5.48038 7.53801 5.68762 7.32374L6.54991 6.43166C6.65879 6.32227 6.74505 6.1925 6.80375 6.04976C6.86246 5.90702 6.89246 5.75412 6.89205 5.59978C6.89163 5.44544 6.86081 5.2927 6.80135 5.15028ZM0 10.668C0 10.5501 0.0468293 10.4371 0.130186 10.3537C0.213542 10.2703 0.326598 10.2235 0.444482 10.2235H1.77793C1.89581 10.2235 2.00887 10.2703 2.09222 10.3537C2.17558 10.4371 2.22241 10.5501 2.22241 10.668V15.5555C2.22241 15.6734 2.17558 15.7865 2.09222 15.8698C2.00887 15.9532 1.89581 16 1.77793 16H0.444482C0.326598 16 0.213542 15.9532 0.130186 15.8698C0.0468293 15.7865 0 15.6734 0 15.5555V10.6684V10.668ZM6.62945 10.3075C6.62945 10.3075 5.61692 10.1186 5.20266 10.3075C4.89419 10.448 3.70032 10.8765 3.11138 11.0863V15.0244C3.4523 15.0048 4.13057 14.9688 4.42038 14.9804C5.28407 15.0151 5.92898 15.2202 6.58106 15.4275L6.58106 15.4275L6.58107 15.4275C7.18942 15.621 7.80401 15.8164 8.60828 15.8773C8.80999 15.8926 9.00629 15.9123 9.1966 15.9314C9.88571 16.0006 10.4964 16.0619 11.0014 15.8773C11.6459 15.6413 15.3271 13.8478 15.7871 13.3758C16.2476 12.9037 16.0174 11.629 14.5906 11.865C13.8864 11.9815 13.0703 12.3164 12.3303 12.6202L12.3303 12.6202C11.5708 12.9319 10.8913 13.2107 10.4951 13.1869C9.71282 13.1398 7.64154 12.762 7.64154 12.762L10.0195 12.7908C10.0195 12.7908 10.3555 12.8086 10.8169 12.4788C11.2792 12.149 11.6917 11.2045 11.0014 11.2045C10.3111 11.2045 9.57459 10.968 9.57459 10.968L6.62945 10.3075ZM13.5646 5.97347C13.7869 6.19578 13.9118 6.4973 13.9118 6.81169C13.9118 7.12578 13.7872 7.42703 13.5653 7.64929C13.3433 7.87155 13.0423 7.99666 12.7282 7.99713L11.3338 7.99846C11.3276 7.99846 11.3218 7.99778 11.3162 7.99711C11.3106 7.99645 11.3051 7.99579 11.2992 7.99579C11.1585 7.99949 11.0185 7.97399 10.8882 7.92089C10.7578 7.8678 10.6399 7.78827 10.5418 7.68732L10.2217 7.36641C10.0292 7.56597 9.79842 7.72477 9.54323 7.83335C9.28804 7.94194 9.01361 7.99809 8.73628 7.99846H7.36595L7.15793 3.84256H9.36167C9.59818 3.84253 9.83231 3.88969 10.0504 3.98128C10.2684 4.07286 10.466 4.20703 10.6316 4.37593L11.8565 5.62626H12.7264C13.0408 5.62626 13.3423 5.75115 13.5646 5.97347Z" fill="#77757F"/>
</svg>
