<svg width="12" height="16" viewBox="0 0 12 16" fill="none" xmlns="http://www.w3.org/2000/svg">
<path d="M5.65518 0C2.53518 0 0.0551832 2.72 0.135183 5.84C0.215183 7.92 1.41518 9.68 3.09518 10.56C4.21518 11.12 4.93518 12.24 4.93518 13.44V13.6C4.93518 14.96 5.97518 16 7.33518 16C10.5352 16 11.3352 12 11.3352 5.6C11.3352 5.6 11.3352 0 5.65518 0ZM7.33518 14.4C6.85518 14.4 6.53518 14.08 6.53518 13.6V13.44C6.53518 11.68 5.49518 10 3.89518 9.12C2.61518 8.48 1.81518 7.2 1.73518 5.76C1.73518 4.72 2.13518 3.6 2.85518 2.8C3.57518 2 4.61518 1.6 5.57518 1.6C9.49518 1.6 9.73518 4.96 9.73518 5.6C9.73518 13.52 8.37518 14.4 7.33518 14.4ZM8.77518 4.48L2.77518 6.64C2.61518 6.4 2.53518 6.08 2.53518 5.68C2.53518 5.12 2.69518 4.64 2.93518 4.08L7.09518 2.56C8.05518 3.04 8.53518 3.76 8.77518 4.48ZM6.45518 10.48L8.69518 9.68C8.61518 10.88 8.37518 11.76 8.21518 12.32L7.17518 12.72C7.17518 11.92 6.93518 11.2 6.45518 10.48ZM8.93518 5.76C8.93518 6.72 8.93518 7.6 8.85518 8.32L5.65518 9.52C5.25518 9.12 4.77518 8.72 4.21518 8.48C3.89518 8.32 3.57518 8.08 3.33518 7.84L8.93518 5.76Z" fill="#77757F"/>
</svg>
