<svg width="16" height="13" viewBox="0 0 16 13" fill="none" xmlns="http://www.w3.org/2000/svg">
<path d="M15.5 10.1333H0.5C0.364583 10.1333 0.247396 10.0838 0.148438 9.98486C0.0494792 9.88591 0 9.76872 0 9.6333C0 7.67497 0.606771 6.0057 1.82031 4.62549C3.03385 3.24528 4.59375 2.41455 6.5 2.1333C6.63542 2.1333 6.7526 2.08382 6.85156 1.98486C6.95052 1.8859 7 1.76872 7 1.6333C7 1.49788 6.95052 1.3807 6.85156 1.28174C6.7526 1.18278 6.63542 1.1333 6.5 1.1333C6.36458 1.1333 6.2474 1.08382 6.14844 0.984863C6.04948 0.885905 6 0.768717 6 0.633301C6 0.497884 6.04948 0.380697 6.14844 0.281738C6.2474 0.18278 6.36458 0.133301 6.5 0.133301H9.5C9.63542 0.133301 9.7526 0.18278 9.85156 0.281738C9.95052 0.380697 10 0.497884 10 0.633301C10 0.768717 9.95052 0.885905 9.85156 0.984863C9.7526 1.08382 9.63542 1.1333 9.5 1.1333C9.36458 1.1333 9.2474 1.18278 9.14844 1.28174C9.04948 1.3807 9 1.49788 9 1.6333C9 1.76872 9.04948 1.8859 9.14844 1.98486C9.2474 2.08382 9.36458 2.1333 9.5 2.1333C11.4062 2.41455 12.9661 3.24528 14.1797 4.62549C15.3932 6.0057 16 7.67497 16 9.6333C16 9.76872 15.9505 9.88591 15.8516 9.98486C15.7526 10.0838 15.6354 10.1333 15.5 10.1333ZM0.5 11.1333H15.5C15.6354 11.1333 15.7526 11.1828 15.8516 11.2817C15.9505 11.3807 16 11.4979 16 11.6333C16 11.7687 15.9505 11.8859 15.8516 11.9849C15.7526 12.0838 15.6354 12.1333 15.5 12.1333H0.5C0.364583 12.1333 0.247396 12.0838 0.148438 11.9849C0.0494792 11.8859 0 11.7687 0 11.6333C0 11.4979 0.0494792 11.3807 0.148438 11.2817C0.247396 11.1828 0.364583 11.1333 0.5 11.1333Z" fill="#77757F"/>
</svg>
