<svg width="10" height="16" viewBox="0 0 10 16" fill="none" xmlns="http://www.w3.org/2000/svg">
<path fillRule="evenodd" clipRule="evenodd" d="M7.25877 0C8.03722 0 8.67053 0.633349 8.67053 1.41176V1.88235H1.14112V1.41176C1.14112 0.633349 1.77444 0 2.55288 0H7.25877ZM9.61172 6.58823V13.1765H0.199951V6.58823H9.61172ZM5.75289 8.28235L4.99995 7.71765L3.02348 10.3529H4.90583L4.05878 11.4824L4.81172 12.0471L6.78819 9.41176H4.90583L5.75289 8.28235ZM7.92391 3.7647H7.72936V2.82353H2.0823V3.7647H1.88773C0.957097 3.7647 0.199951 4.52185 0.199951 5.45252V5.64706H9.61172V5.45252C9.61172 4.52185 8.85457 3.7647 7.92391 3.7647ZM1.88773 16C0.957097 16 0.199951 15.2429 0.199951 14.3122V14.1176H9.61172V14.3122C9.61172 15.2429 8.85457 16 7.92391 16H1.88773Z" fill="#F9F9F9"/>
</svg>
