<svg width="10" height="16" viewBox="0 0 10 16" fill="none" xmlns="http://www.w3.org/2000/svg">
<path d="M7.05709 8V4.57143H9.10174C9.16721 4.57143 9.22376 4.54762 9.27138 4.5C9.319 4.45238 9.34281 4.39583 9.34281 4.33036V3.66964C9.34281 3.60417 9.319 3.54762 9.27138 3.5C9.22376 3.45238 9.16721 3.42857 9.10174 3.42857H2.48567V0.214286C2.48567 0.154762 2.46483 0.104167 2.42317 0.0625C2.3815 0.0208333 2.3309 0 2.27138 0H1.55709C1.49757 0 1.44697 0.0208333 1.40531 0.0625C1.36364 0.104167 1.34281 0.154762 1.34281 0.214286V7.25C1.34281 7.45238 1.3934 7.62351 1.49459 7.76339C1.59578 7.90327 1.73567 7.98214 1.91424 8L0.199951 16H1.36067L2.19995 12.5714H6.34281L7.03031 16H8.19995L6.48567 8H7.05709ZM6.12852 11.4286H2.41424L3.05709 8H5.34281L6.12852 11.4286Z" fill="#77757F"/>
</svg>
