<svg width="20" height="20" viewBox="0 0 20 20" fill="none" xmlns="http://www.w3.org/2000/svg">
<g opacity="0.8">
<path fillRule="evenodd" clipRule="evenodd" d="M2 9.98242C2 5.56414 5.58172 1.98242 10 1.98242C14.4183 1.98242 18 5.56414 18 9.98242C18 14.4007 14.4183 17.9824 10 17.9824C5.58172 17.9824 2 14.4007 2 9.98242ZM12.8229 13.5596L10 10.7367L7.17716 13.5596L6.42292 12.8053L9.24579 9.98246L6.42292 7.15959L7.17716 6.40534L10 9.22822L12.8229 6.40534L13.5772 7.15959L10.7543 9.98246L13.5772 12.8053L12.8229 13.5596Z" fill="#F42829"/>
</g>
</svg>
