<svg width="21" height="20" viewBox="0 0 21 20" fill="none" xmlns="http://www.w3.org/2000/svg">
<g opacity="0.8">
<path d="M18.451 2.73954C18.4254 2.79507 18.3896 2.8471 18.3439 2.89288L8.26081 12.9759L11.1093 17.7235C11.2124 17.8952 11.403 17.9948 11.6028 17.9812C11.8026 17.9677 11.978 17.8433 12.0569 17.6592L18.451 2.73954Z" fill="#77757F"/>
<path d="M7.50657 12.2217L2.75894 9.3731C2.5872 9.27006 2.48767 9.07948 2.50123 8.87966C2.51479 8.67984 2.63916 8.50446 2.82325 8.42556L17.7459 2.03015C17.6892 2.0559 17.6362 2.09206 17.5896 2.13863L7.50657 12.2217Z" fill="#77757F"/>
</g>
</svg>
