<svg width="20" height="20" viewBox="0 0 20 20" fill="none" xmlns="http://www.w3.org/2000/svg">
<g opacity="0.8">
<path d="M7.86654 14.2413L8.36567 13.9083C8.25437 13.7415 8.06708 13.6413 7.86654 13.6413V14.2413ZM9.99987 17.4392L9.50074 17.7722C9.61203 17.939 9.79932 18.0392 9.99987 18.0392C10.2004 18.0392 10.3877 17.939 10.499 17.7722L9.99987 17.4392ZM12.1332 14.2413V13.6413C11.9327 13.6413 11.7454 13.7415 11.6341 13.9083L12.1332 14.2413ZM7.36741 14.5743L9.50074 17.7722L10.499 17.1063L8.36567 13.9083L7.36741 14.5743ZM10.499 17.7722L12.6323 14.5743L11.6341 13.9083L9.50074 17.1063L10.499 17.7722ZM12.1332 14.8413H16.3999V13.6413H12.1332V14.8413ZM16.3999 14.8413C17.3207 14.8413 18.0665 14.0966 18.0665 13.1753H16.8665C16.8665 13.4331 16.6587 13.6413 16.3999 13.6413V14.8413ZM18.0665 13.1753V3.5816H16.8665V13.1753H18.0665ZM18.0665 3.5816C18.0665 2.66037 17.3207 1.91562 16.3999 1.91562V3.11563C16.6587 3.11563 16.8665 3.32385 16.8665 3.5816H18.0665ZM16.3999 1.91562H3.59987V3.11563H16.3999V1.91562ZM3.59987 1.91562C2.679 1.91562 1.9332 2.66037 1.9332 3.5816H3.1332C3.1332 3.32385 3.34101 3.11563 3.59987 3.11563V1.91562ZM1.9332 3.5816V13.1753H3.1332V3.5816H1.9332ZM1.9332 13.1753C1.9332 14.0966 2.679 14.8413 3.59987 14.8413V13.6413C3.34101 13.6413 3.1332 13.4331 3.1332 13.1753H1.9332ZM3.59987 14.8413H7.86654V13.6413H3.59987V14.8413ZM7.3332 10.5823H12.6665V9.38229H7.3332V10.5823ZM6.26654 7.38229H13.7332V6.18229H6.26654V7.38229Z" fill="#615E69"/>
</g>
</svg>
