<svg width="32" height="32" viewBox="0 0 32 32" fill="none" xmlns="http://www.w3.org/2000/svg">
<rect width="32" height="32" rx="12" fill="#F9F9F9"/>
<path d="M19.7329 9.59999H22.3996V22.4C22.3996 22.9891 21.922 23.4667 21.3329 23.4667H10.6663C10.0772 23.4667 9.59961 22.9891 9.59961 22.4V9.59999H12.2663M13.3329 17.0667L15.4663 19.2L19.1996 14.9333M12.7996 8.53333H19.1996V10.6667C19.1996 11.2558 18.722 11.7333 18.1329 11.7333H13.8663C13.2772 11.7333 12.7996 11.2558 12.7996 10.6667V8.53333Z" stroke="#77757F"/>
</svg>
