<svg width="20" height="20" viewBox="0 0 20 20" fill="none" xmlns="http://www.w3.org/2000/svg">
<g opacity="0.8">
<path fill-rule="evenodd" clip-rule="evenodd" d="M2 9.98291C2 5.56463 5.58172 1.98291 10 1.98291C14.4183 1.98291 18 5.56463 18 9.98291C18 14.4012 14.4183 17.9829 10 17.9829C5.58172 17.9829 2 14.4012 2 9.98291ZM10 5.71624C10.2068 5.71624 10.3949 5.83577 10.4828 6.02296L11.5156 8.22328L13.8138 8.57419C14.0115 8.60437 14.1756 8.74252 14.2391 8.93208C14.3026 9.12165 14.2547 9.33079 14.1151 9.47387L12.4364 11.1944L12.8338 13.6304C12.8667 13.8319 12.7816 14.0346 12.6146 14.1522C12.4477 14.2699 12.2282 14.2818 12.0494 14.183L10 13.0501L7.9506 14.183C7.77185 14.2818 7.55236 14.2699 7.3854 14.1522C7.21843 14.0346 7.13331 13.8319 7.1662 13.6304L7.56363 11.1944L5.88495 9.47387C5.74534 9.33079 5.69747 9.12165 5.76094 8.93208C5.82441 8.74252 5.98856 8.60437 6.18618 8.57419L8.48443 8.22328L9.51722 6.02296C9.60508 5.83577 9.79323 5.71624 10 5.71624Z" fill="#CCB243"/>
</g>
</svg>
