<svg width="11" height="15" viewBox="0 0 11 15" fill="none" xmlns="http://www.w3.org/2000/svg">
<path fillRule="evenodd" clipRule="evenodd" d="M8.5 3.49804C8.5 5.15396 7.157 6.49609 5.5 6.49609C3.843 6.49609 2.5 5.15396 2.5 3.49804C2.5 1.84212 3.843 0.5 5.5 0.5C7.157 0.5 8.5 1.84212 8.5 3.49804Z" stroke="#77757F" stroke-linecap="square"/>
<path fillRule="evenodd" clipRule="evenodd" d="M10.5 14.4909H0.5C0.5 13.7808 0.5 13.1053 0.5 12.4936C0.5 10.8368 1.84315 9.49414 3.5 9.49414H7.5C9.15685 9.49414 10.5 10.8368 10.5 12.4936C10.5 13.1053 10.5 13.7808 10.5 14.4909Z" stroke="#77757F" stroke-linecap="square"/>
</svg>
